<svg width="9" height="13" viewBox="0 0 9 13" fill="none" xmlns="http://www.w3.org/2000/svg">
<path d="M5.99312 11.9964L5.99312 4.42005L7.2818 5.70943C7.46991 5.89764 7.72505 6.00338 7.99107 6.00338C8.2571 6.00338 8.51224 5.89764 8.70035 5.70943C8.88846 5.52122 8.99414 5.26595 8.99414 4.99977C8.99414 4.7336 8.88846 4.47833 8.70035 4.29012L5.70341 1.29157C5.61055 1.19788 5.50006 1.12352 5.37832 1.07278C5.25659 1.02204 5.12602 0.99591 4.99414 0.99591C4.86226 0.99591 4.73169 1.02204 4.60996 1.07278C4.48822 1.12352 4.37773 1.19788 4.28487 1.29157L1.28793 4.29012C1.19479 4.38331 1.1209 4.49395 1.07049 4.61571C1.02008 4.73747 0.99414 4.86798 0.99414 4.99977C0.99414 5.13157 1.02008 5.26207 1.07049 5.38384C1.1209 5.5056 1.19479 5.61624 1.28793 5.70943C1.38107 5.80262 1.49165 5.87655 1.61335 5.92699C1.73505 5.97742 1.86548 6.00338 1.99721 6.00338C2.12893 6.00338 2.25936 5.97742 2.38106 5.92699C2.50276 5.87655 2.61334 5.80262 2.70648 5.70943L3.99516 4.42005L3.99516 11.9964C3.99516 12.2615 4.10041 12.5157 4.28776 12.7032C4.4751 12.8906 4.72919 12.9959 4.99414 12.9959C5.25909 12.9959 5.51318 12.8906 5.70052 12.7032C5.88787 12.5157 5.99312 12.2615 5.99312 11.9964Z" fill="#3F4F5C"/>
</svg>
