<svg width="16" height="16" viewBox="0 0 16 16" fill="none" xmlns="http://www.w3.org/2000/svg">
<path fill-rule="evenodd" clip-rule="evenodd" d="M8 16C12.4183 16 16 12.4183 16 8C16 3.58172 12.4183 0 8 0C3.58172 0 0 3.58172 0 8C0 12.4183 3.58172 16 8 16ZM11.44 11.44C11.1307 11.7493 10.6293 11.7493 10.32 11.44L8 9.12L5.68 11.44C5.37072 11.7493 4.86928 11.7493 4.56 11.44C4.25072 11.1307 4.25072 10.6293 4.56 10.32L6.88 8L4.56 5.68C4.25072 5.37072 4.25072 4.86928 4.56 4.56C4.86928 4.25072 5.37072 4.25072 5.68 4.56L8 6.88L10.32 4.56C10.6293 4.25072 11.1307 4.25072 11.44 4.56C11.7493 4.86928 11.7493 5.37072 11.44 5.68L9.12 8L11.44 10.32C11.7493 10.6293 11.7493 11.1307 11.44 11.44Z" fill="#333F50" fill-opacity="0.7"/>
</svg>
