<svg width="16" height="16" viewBox="0 0 16 16" fill="none" xmlns="http://www.w3.org/2000/svg">
<path fill-rule="evenodd" clip-rule="evenodd" d="M16 8C16 12.4183 12.4183 16 8 16C3.58172 16 0 12.4183 0 8C0 3.58172 3.58172 0 8 0C12.4183 0 16 3.58172 16 8ZM6.77243 11.4138C6.9042 11.5476 7.08269 11.6222 7.26951 11.6222C7.27439 11.6222 7.27858 11.6222 7.28346 11.6229C7.47517 11.6187 7.65644 11.5365 7.78539 11.3943L12.5329 6.16578C12.7915 5.87996 12.7706 5.43938 12.4855 5.18074C12.2018 4.9228 11.7611 4.94301 11.5011 5.22813L7.24929 9.91077L5.19413 7.82217C4.92434 7.54749 4.48306 7.54472 4.20838 7.8138C3.93371 8.0843 3.93023 8.52487 4.20002 8.79955L6.77243 11.4138Z" fill="#3AA76D"/>
</svg>
