{
  "compilerOptions": {
    "jsx": "react",
    "baseUrl": ".",
    "paths": {
      "@ep/lazada/*": ["./packages/lazada/*"],
      "@ep/one/*": ["./packages/one/*"],
      "@ep/shopee/*": ["./packages/shopee/*"],
      "@ep/toko/*": ["./packages/toko/*"],
      "@epi/next/*": ["./packages/next/*"],
      "@ep/insight-ui/*": ["./packages/insight-ui/*"],
    }
  },
  "exclude": ["build", "build-assets", "build-storybook"]
}
