<svg width="128" height="56" viewBox="0 0 128 56" fill="none" xmlns="http://www.w3.org/2000/svg">
<path fill-rule="evenodd" clip-rule="evenodd" d="M22.8718 15.0603C23.1026 15.0603 23.3334 15.1085 23.5385 15.1808C23.7436 15.2531 23.9487 15.3736 24.1026 15.5422C24.2564 15.6868 24.3846 15.8796 24.4872 16.0724C24.5641 16.2651 24.6154 16.482 24.6154 16.6989C24.6154 16.9157 24.5641 17.1326 24.4872 17.3254C24.4103 17.5181 24.2821 17.7109 24.1026 17.8555C23.9487 18.0001 23.7436 18.1205 23.5385 18.2169C23.3334 18.2892 23.1026 18.3374 22.8718 18.3374C22.6411 18.3374 22.4103 18.2892 22.2052 18.2169C22 18.1446 21.7949 18.0242 21.6411 17.8555C21.4872 17.7109 21.359 17.5181 21.2564 17.3254C21.1795 17.1326 21.1282 16.9157 21.1282 16.6989C21.1282 16.482 21.1795 16.2651 21.2564 16.0724C21.359 15.8555 21.4872 15.6868 21.6667 15.5181C21.8205 15.3736 22.0257 15.2531 22.2308 15.1567C22.4359 15.0844 22.6411 15.0603 22.8718 15.0603Z" fill="#ED5C10"/>
<path fill-rule="evenodd" clip-rule="evenodd" d="M16.6411 15.0603C16.8718 15.0603 17.1026 15.1085 17.3077 15.1808C17.5128 15.2531 17.718 15.3736 17.8718 15.5422C18.0257 15.6868 18.1539 15.8796 18.2564 16.0724C18.3334 16.2651 18.3846 16.482 18.3846 16.6989C18.3846 16.9157 18.3334 17.1326 18.2564 17.3254C18.1795 17.5181 18.0513 17.7109 17.8718 17.8555C17.718 18.0001 17.5128 18.1205 17.3077 18.2169C17.1026 18.2892 16.8718 18.3374 16.6411 18.3374C16.4103 18.3374 16.1795 18.2892 15.9744 18.2169C15.7693 18.1446 15.5641 18.0242 15.4103 17.8555C15.2564 17.7109 15.1282 17.5181 15.0257 17.3254C14.9487 17.1326 14.8975 16.9157 14.8975 16.6989C14.8975 16.482 14.9487 16.2651 15.0257 16.0724C15.1026 15.8796 15.2308 15.6868 15.4103 15.5422C15.5641 15.3977 15.7693 15.2772 15.9744 15.1808C16.1795 15.0844 16.4103 15.0603 16.6411 15.0603Z" fill="#ED5C10"/>
<path fill-rule="evenodd" clip-rule="evenodd" d="M26.0513 28C26.0513 28.4096 25.9487 28.6988 25.7179 28.8916C25.4872 29.0602 25.2564 29.1566 24.9487 29.1566H14.8974C14.8974 29.9518 14.9744 30.6747 15.1538 31.3012C15.3333 31.9277 15.6154 32.4819 16 32.9398C16.4103 33.3976 16.9231 33.759 17.5385 34C18.1795 34.241 18.9487 34.3614 19.8718 34.3614C20.5897 34.3614 21.2564 34.3132 21.8205 34.1928C22.3846 34.0723 22.8718 33.9518 23.282 33.8072C23.6923 33.6626 24.0256 33.5422 24.3077 33.4217C24.5641 33.3012 24.7692 33.253 24.9231 33.253C25 33.253 25.0769 33.2771 25.1282 33.3012C25.1795 33.3494 25.2308 33.3976 25.282 33.4699C25.3077 33.5422 25.3333 33.6385 25.359 33.7831C25.3846 33.9277 25.3846 34.0723 25.3846 34.2651C25.3846 34.4096 25.3846 34.5301 25.359 34.6265C25.359 34.7229 25.3333 34.8193 25.3077 34.8916C25.282 34.9638 25.2564 35.0361 25.2308 35.1084C25.1795 35.1807 25.1282 35.2289 25.0769 35.3012C25.0256 35.3494 24.8205 35.4458 24.5385 35.5904C24.2308 35.7349 23.8462 35.8554 23.359 35.9759C22.8718 36.0964 22.3077 36.2169 21.6667 36.3132C21.0256 36.4096 20.359 36.4578 19.6154 36.4578C18.359 36.4578 17.2564 36.2892 16.3077 35.9518C15.359 35.6145 14.5641 35.1325 13.9231 34.4819C13.2821 33.8313 12.7949 33.012 12.4615 32.0482C12.1538 31.1325 12 30 12 28.6988C12 27.4699 12.1795 26.3614 12.5128 25.3735C12.8462 24.3855 13.3333 23.5663 13.9744 22.8675C14.6154 22.1928 15.3846 21.6626 16.2821 21.3012C17.1795 20.9398 18.2051 20.747 19.3077 20.747C20.5128 20.747 21.5385 20.9398 22.359 21.2771C23.2051 21.6386 23.8974 22.1205 24.4359 22.747C24.9744 23.3494 25.3846 24.0723 25.641 24.8916C25.8974 25.7108 26.0256 26.6024 26.0256 27.5181V28H26.0513ZM23.2308 27.2289C23.2564 25.8554 22.9487 24.7711 22.2564 23.9759C21.5641 23.1807 20.5385 22.7952 19.2051 22.7952C18.5128 22.7952 17.8974 22.9157 17.3846 23.1566C16.8718 23.3976 16.4359 23.7349 16.0769 24.1205C15.7179 24.506 15.4615 24.9879 15.2564 25.5422C15.0513 26.0723 14.9487 26.6506 14.9231 27.2289H23.2308Z" fill="#253746"/>
<path fill-rule="evenodd" clip-rule="evenodd" d="M44.3333 28.4096C44.3333 29.6626 44.1795 30.7952 43.8974 31.7831C43.6154 32.7711 43.1795 33.6386 42.6154 34.3133C42.0513 35.012 41.359 35.5422 40.5385 35.9277C39.7179 36.3133 38.7692 36.4819 37.7179 36.4819C37.2564 36.4819 36.8462 36.4337 36.4615 36.3614C36.0769 36.2651 35.6923 36.1446 35.3333 35.9518C34.9744 35.7831 34.5897 35.5422 34.2308 35.2771C33.8718 35.012 33.4872 34.6747 33.0769 34.3133V41.494C33.0769 41.5904 33.0513 41.6626 33 41.7108C32.9487 41.7831 32.8718 41.8313 32.7692 41.8795C32.6667 41.9277 32.5385 41.9518 32.3333 41.9759C32.1538 42 31.9231 42 31.641 42C31.359 42 31.1538 42 30.9744 41.9759C30.7949 41.9518 30.641 41.9277 30.5385 41.8795C30.4359 41.8313 30.359 41.7831 30.3077 41.7108C30.2564 41.6386 30.2564 41.5663 30.2564 41.494V21.4699C30.2564 21.3735 30.282 21.3012 30.3077 21.2289C30.3333 21.1807 30.4103 21.1084 30.5128 21.0843C30.6154 21.0361 30.7436 21.012 30.8974 20.988C31.0513 20.9639 31.2564 20.9639 31.4615 20.9639C31.6923 20.9639 31.8974 20.9639 32.0513 20.988C32.2051 21.012 32.3333 21.0361 32.4359 21.0843C32.5385 21.1325 32.6154 21.1807 32.641 21.2289C32.6923 21.2771 32.6923 21.3735 32.6923 21.4699V23.3976C33.1538 22.9398 33.5897 22.5542 34.0256 22.241C34.4615 21.9036 34.8974 21.6386 35.3333 21.4217C35.7692 21.2048 36.2051 21.0361 36.6667 20.9157C37.1282 20.7952 37.6154 20.747 38.1282 20.747C39.2308 20.747 40.1795 20.9398 40.9487 21.3494C41.7179 21.759 42.359 22.3133 42.8462 23.012C43.3333 23.7108 43.6923 24.5301 43.9231 25.4699C44.2308 26.3855 44.3333 27.3735 44.3333 28.4096ZM41.4359 28.7229C41.4359 28 41.3846 27.2771 41.2564 26.6024C41.1282 25.9277 40.9231 25.3012 40.641 24.7711C40.359 24.241 39.9487 23.8072 39.4615 23.494C38.9744 23.1807 38.359 23.012 37.641 23.012C37.282 23.012 36.9231 23.0602 36.5641 23.1566C36.2051 23.253 35.8461 23.4217 35.4872 23.6386C35.1282 23.8554 34.7436 24.1446 34.3333 24.506C33.9744 24.8434 33.5385 25.3012 33.1026 25.8072V31.5181C33.8718 32.4096 34.6154 33.0843 35.3077 33.5422C36 34 36.7179 34.241 37.4872 34.241C38.2051 34.241 38.7949 34.0723 39.3077 33.759C39.8205 33.4458 40.2308 33.012 40.5385 32.4819C40.8462 31.9518 41.0769 31.3494 41.2308 30.6988C41.359 30.0482 41.4359 29.3735 41.4359 28.7229Z" fill="#253746"/>
<path fill-rule="evenodd" clip-rule="evenodd" d="M57.9744 31.9036C57.9744 32.6265 57.8205 33.3012 57.5385 33.8554C57.2564 34.4337 56.8462 34.9157 56.3077 35.3012C55.7692 35.6867 55.1539 36 54.4103 36.1928C53.6667 36.3855 52.8718 36.506 51.9744 36.506C51.4359 36.506 50.9231 36.4578 50.4103 36.3855C49.9231 36.3133 49.4872 36.2169 49.0769 36.0723C48.6923 35.9518 48.359 35.8313 48.0769 35.6867C47.7949 35.5422 47.6154 35.4458 47.4872 35.3253C47.359 35.2289 47.2821 35.0602 47.2051 34.8675C47.1539 34.6747 47.1282 34.4096 47.1282 34.0964C47.1282 33.9036 47.1282 33.7349 47.1539 33.5904C47.1795 33.4458 47.2051 33.3494 47.2308 33.253C47.2564 33.1566 47.3077 33.1084 47.3846 33.0602C47.4359 33.012 47.5128 33.012 47.5898 33.012C47.718 33.012 47.8974 33.0843 48.1282 33.2289C48.359 33.3735 48.6667 33.5181 49.0256 33.7108C49.3846 33.8795 49.7949 34.0482 50.2821 34.1928C50.7692 34.3374 51.3333 34.4096 51.9487 34.4096C52.4359 34.4096 52.8462 34.3614 53.2308 34.2651C53.6154 34.1687 53.9487 34.0241 54.2308 33.8313C54.5128 33.6386 54.7436 33.3976 54.8718 33.1325C55.0257 32.8434 55.1026 32.506 55.1026 32.1205C55.1026 31.7108 55 31.3735 54.7692 31.1084C54.5385 30.8434 54.2564 30.5783 53.8974 30.3855C53.5385 30.1687 53.1282 29.9759 52.6667 29.8313C52.2051 29.6626 51.7436 29.494 51.2564 29.3253C50.7692 29.1566 50.3077 28.9398 49.8462 28.7229C49.3846 28.506 48.9744 28.2169 48.6154 27.8795C48.2564 27.5422 47.9744 27.1566 47.7436 26.6988C47.5128 26.241 47.4103 25.6867 47.4103 25.0602C47.4103 24.506 47.5385 23.9518 47.7692 23.4458C48 22.9398 48.359 22.4819 48.8205 22.0964C49.2821 21.7108 49.8718 21.3976 50.5641 21.1566C51.2564 20.9157 52.0769 20.7952 53 20.7952C53.4103 20.7952 53.8205 20.8193 54.2308 20.8916C54.641 20.9639 55 21.0361 55.3333 21.1325C55.6667 21.2289 55.9487 21.3253 56.1795 21.4458C56.4103 21.5663 56.5898 21.6626 56.718 21.7349C56.8462 21.8313 56.9231 21.9036 56.9487 21.9518C57 22.0241 57.0257 22.0964 57.0257 22.1687C57.0513 22.241 57.0513 22.3373 57.0769 22.4578C57.1026 22.5783 57.1026 22.7229 57.1026 22.8916C57.1026 23.0843 57.1026 23.2289 57.0769 23.3735C57.0513 23.5181 57.0257 23.6145 57 23.7108C56.9487 23.8072 56.9231 23.8554 56.8462 23.9036C56.7949 23.9518 56.718 23.9518 56.6667 23.9518C56.5641 23.9518 56.4103 23.9036 56.2308 23.7831C56.0257 23.6626 55.7949 23.5422 55.4872 23.3976C55.1795 23.253 54.8205 23.1325 54.4103 23.012C54 22.8916 53.5128 22.8434 53 22.8434C52.5128 22.8434 52.1026 22.8916 51.7436 22.9879C51.3846 23.0843 51.0769 23.2289 50.8462 23.4217C50.6154 23.6145 50.4359 23.8313 50.3077 24.0723C50.1795 24.3373 50.1282 24.6024 50.1282 24.8916C50.1282 25.3012 50.2308 25.6626 50.4615 25.9277C50.6923 26.2169 50.9744 26.4578 51.3333 26.6747C51.6923 26.8916 52.1026 27.0843 52.5641 27.253C53.0257 27.4217 53.4872 27.5904 53.9744 27.7831C54.4615 27.9759 54.9231 28.1687 55.4103 28.3855C55.8718 28.6024 56.2821 28.8916 56.6667 29.2048C57.0256 29.5181 57.3077 29.9036 57.5385 30.3614C57.8462 30.747 57.9744 31.2771 57.9744 31.9036Z" fill="#253746"/>
<path fill-rule="evenodd" clip-rule="evenodd" d="M64.7692 35.8072C64.7692 35.9036 64.7436 35.9759 64.6923 36.0241C64.641 36.0723 64.5641 36.1446 64.4615 36.1687C64.359 36.2169 64.2308 36.241 64.0256 36.2651C63.8462 36.2892 63.6154 36.2892 63.3333 36.2892C63.0513 36.2892 62.8462 36.2892 62.6667 36.2651C62.4872 36.241 62.3333 36.2169 62.2308 36.1687C62.1282 36.1205 62.0513 36.0723 62 36.0241C61.9487 35.9759 61.9487 35.9036 61.9487 35.8072V21.4699C61.9487 21.3976 61.9744 21.3253 62 21.253C62.0513 21.1807 62.1026 21.1325 62.2308 21.0843C62.3333 21.0361 62.4872 21.012 62.6667 20.988C62.8462 20.9639 63.0769 20.9639 63.3333 20.9639C63.6154 20.9639 63.8462 20.9639 64.0256 20.988C64.2051 21.012 64.359 21.0361 64.4615 21.0843C64.5641 21.1325 64.641 21.1807 64.6923 21.253C64.7436 21.3253 64.7692 21.3976 64.7692 21.4699V35.8072Z" fill="#253746"/>
<path fill-rule="evenodd" clip-rule="evenodd" d="M72.7436 35.8072C72.7436 35.9036 72.7179 35.9759 72.6667 36.0241C72.6154 36.0723 72.5385 36.1446 72.4359 36.1687C72.3333 36.2169 72.2051 36.241 72 36.2651C71.8205 36.2892 71.5897 36.2892 71.3077 36.2892C71.0256 36.2892 70.8205 36.2892 70.641 36.2651C70.4615 36.241 70.3077 36.2169 70.2051 36.1687C70.1026 36.1205 70.0256 36.0723 69.9744 36.0241C69.9231 35.9759 69.9231 35.9036 69.9231 35.8072V14.506C69.9231 14.4096 69.9487 14.3373 69.9744 14.2892C70.0256 14.2169 70.0769 14.1687 70.2051 14.1205C70.3077 14.0723 70.4615 14.0482 70.641 14.0241C70.8205 14 71.0513 14 71.3077 14C71.5897 14 71.8205 14 72 14.0241C72.1795 14.0482 72.3333 14.0723 72.4359 14.1205C72.5385 14.1687 72.6154 14.2169 72.6667 14.2892C72.7179 14.3614 72.7436 14.4337 72.7436 14.506V35.8072Z" fill="#253746"/>
<path fill-rule="evenodd" clip-rule="evenodd" d="M92 28.4819C92 29.6627 91.8462 30.7229 91.5128 31.7108C91.1795 32.6988 90.6923 33.5422 90.0513 34.2651C89.4103 34.988 88.5897 35.5422 87.6154 35.9277C86.641 36.3374 85.5128 36.5301 84.2051 36.5301C82.9487 36.5301 81.8462 36.3615 80.9231 36C80 35.6386 79.2051 35.1325 78.5898 34.4819C77.9744 33.8072 77.5128 32.988 77.2051 32.0482C76.8974 31.0843 76.7436 30 76.7436 28.7952C76.7436 27.6145 76.8974 26.5542 77.2308 25.5663C77.5641 24.5783 78.0513 23.7349 78.6923 23.012C79.3333 22.2892 80.1539 21.759 81.1282 21.3494C82.1026 20.9639 83.2308 20.7711 84.5385 20.7711C85.7949 20.7711 86.8974 20.9398 87.8205 21.3012C88.7436 21.6627 89.5385 22.1687 90.1538 22.8193C90.7692 23.494 91.2308 24.3133 91.5641 25.253C91.8462 26.1928 92 27.2771 92 28.4819ZM89.1026 28.6506C89.1026 27.8795 89.0256 27.1325 88.8718 26.4578C88.7179 25.759 88.4615 25.1566 88.1026 24.6506C87.7436 24.1205 87.2821 23.7108 86.6667 23.4217C86.0513 23.1084 85.3077 22.9639 84.4103 22.9639C83.5898 22.9639 82.8718 23.1084 82.2564 23.3735C81.6667 23.6386 81.1539 24.0482 80.7692 24.5542C80.3846 25.0602 80.1026 25.6627 79.8974 26.3374C79.7179 27.0361 79.6154 27.7831 79.6154 28.6024C79.6154 29.3976 79.6923 30.1205 79.8462 30.8193C80 31.5181 80.2564 32.1205 80.6154 32.6265C80.9744 33.1325 81.4615 33.5422 82.0513 33.8554C82.6667 34.1687 83.4103 34.3133 84.3077 34.3133C85.1282 34.3133 85.8462 34.1687 86.4359 33.9036C87.0513 33.6386 87.5385 33.2289 87.9231 32.747C88.3077 32.241 88.5897 31.6627 88.7692 30.9639C89 30.241 89.1026 29.4699 89.1026 28.6506Z" fill="#253746"/>
<rect x="94" y="10" width="22" height="8" rx="2" fill="#253746"/>
<path d="M96.5127 16H98.4111C99.3135 16 99.873 15.5342 99.873 14.793V14.7871C99.873 14.2451 99.4658 13.8262 98.9062 13.7822V13.7295C99.3398 13.665 99.6709 13.2754 99.6709 12.8301V12.8242C99.6709 12.1738 99.1816 11.7725 98.3613 11.7725H96.5127V16ZM98.1357 12.4287C98.5576 12.4287 98.8008 12.6338 98.8008 12.9766V12.9824C98.8008 13.3311 98.54 13.5303 98.0625 13.5303H97.3975V12.4287H98.1357ZM98.165 14.1133C98.6865 14.1133 98.9707 14.3242 98.9707 14.7168V14.7227C98.9707 15.124 98.6953 15.3408 98.1855 15.3408H97.3975V14.1133H98.165ZM101.173 16H103.974V15.2705H102.058V14.2012H103.865V13.5215H102.058V12.502H103.974V11.7725H101.173V16ZM106.431 16H107.315V12.502H108.584V11.7725H105.162V12.502H106.431V16ZM109.107 16H110.036L110.35 14.9746H111.841L112.154 16H113.086L111.615 11.7725H110.575L109.107 16ZM111.07 12.6162H111.123L111.639 14.3125H110.552L111.07 12.6162Z" fill="white"/>
</svg>
