<svg width="266" height="74" viewBox="0 0 266 74" fill="none" xmlns="http://www.w3.org/2000/svg">
<rect width="116" height="16" rx="6" fill="#E4E7E9"/>
<rect y="24" width="66" height="28" rx="6" fill="#E4E7E9"/>
<rect y="60" width="22" height="12" rx="6" fill="#E4E7E9"/>
<path d="M96 71.356C104.885 72.396 125.335 72.2637 136.058 63.4143C144.435 56.0374 142.912 50.6102 150.223 50.0429C151.746 49.9618 154.869 49.2325 159.895 59.0382C160.58 60.2537 165.073 68.9654 168.196 70.5456C169.49 71.356 171.775 72.0449 174.898 68.6818C176.116 67.142 182.97 55.2294 184.341 53.6491C185.636 52.0689 188.301 48.1385 192.947 51.7852C199.572 57.7392 201.247 64.8706 203.608 68.1145C205.969 71.3584 208.711 74.395 216.555 69.2085C221.951 65.6404 233.385 60.2943 242.981 59.2002C245.266 59.0382 249.073 57.9441 264 68.1145" stroke="#E4E7E9" stroke-width="3" stroke-linecap="round" stroke-linejoin="round" stroke-dasharray="4 8"/>
<path d="M96 57.8417C103.664 58.2944 108.083 54.3395 111.657 41.2523C112.559 37.704 113.913 30.2848 117.477 29.1328C121.041 27.9807 121.237 34.6304 121.899 37.3353C122.305 38.9942 123.433 54.3395 129.704 57.8417C133.515 59.2224 135.128 51.3344 136.742 43.4464C138.071 36.9504 141.179 28.5984 150.053 40.6624C159.221 52.3901 163.576 60.17 175.302 44.766C180.814 36.1663 186.201 30.4333 191.087 30.4333C195.973 30.4333 195.597 34.0164 209.503 49.4241C223.409 64.8317 239.946 57.8417 264 37.3353" stroke="#E4E7E9" stroke-width="3" stroke-linecap="round"/>
</svg>
