<svg width="4" height="8" viewBox="0 0 4 8" fill="none" xmlns="http://www.w3.org/2000/svg">
<path d="M3.82667 7.15808C3.71196 7.2706 3.55753 7.33366 3.39667 7.33366C3.2358 7.33366 3.08138 7.2706 2.96667 7.15808L0.18 4.42438C0.123121 4.37033 0.0778374 4.30532 0.046896 4.23329C0.0159546 4.16126 0 4.08371 0 4.00534C0 3.92698 0.0159546 3.84943 0.046896 3.7774C0.0778374 3.70537 0.123121 3.64036 0.18 3.58631L2.96667 0.852607C3.02383 0.793875 3.09223 0.747186 3.16781 0.715303C3.24339 0.68342 3.32461 0.666992 3.40667 0.666992C3.48872 0.666992 3.56995 0.68342 3.64552 0.715303C3.7211 0.747186 3.7895 0.793875 3.84667 0.852607C3.95102 0.968547 4.00535 1.12086 3.99786 1.27651C3.99037 1.43216 3.92167 1.57859 3.80667 1.68402L1.46667 4.00534L3.82667 6.31336C3.93702 6.42638 3.99878 6.57793 3.99878 6.73572C3.99878 6.89351 3.93702 7.04506 3.82667 7.15808Z" fill="#3F4F5C"/>
</svg>
