<svg width="92" height="36" viewBox="0 0 92 36" fill="none" xmlns="http://www.w3.org/2000/svg">
<rect width="92" height="36" rx="4" fill="#253746"/>
<path fill-rule="evenodd" clip-rule="evenodd" d="M16.8718 5.06024C17.1026 5.06024 17.3334 5.10843 17.5385 5.18072C17.7436 5.25301 17.9487 5.37349 18.1026 5.54217C18.2564 5.68675 18.3846 5.87952 18.4872 6.07229C18.5641 6.26506 18.6154 6.48193 18.6154 6.6988C18.6154 6.91566 18.5641 7.13253 18.4872 7.3253C18.4103 7.51807 18.2821 7.71084 18.1026 7.85542C17.9487 8 17.7436 8.12048 17.5385 8.21687C17.3334 8.28916 17.1026 8.33735 16.8718 8.33735C16.6411 8.33735 16.4103 8.28916 16.2052 8.21687C16 8.14458 15.7949 8.0241 15.6411 7.85542C15.4872 7.71084 15.359 7.51807 15.2564 7.3253C15.1795 7.13253 15.1282 6.91566 15.1282 6.6988C15.1282 6.48193 15.1795 6.26506 15.2564 6.07229C15.359 5.85542 15.4872 5.68675 15.6667 5.51807C15.8205 5.37349 16.0257 5.25301 16.2308 5.15663C16.4359 5.08434 16.6411 5.06024 16.8718 5.06024Z" fill="#ED5C10"/>
<path fill-rule="evenodd" clip-rule="evenodd" d="M10.6411 5.06024C10.8718 5.06024 11.1026 5.10843 11.3077 5.18072C11.5128 5.25301 11.718 5.37349 11.8718 5.54217C12.0257 5.68675 12.1539 5.87952 12.2564 6.07229C12.3334 6.26506 12.3846 6.48193 12.3846 6.6988C12.3846 6.91566 12.3334 7.13253 12.2564 7.3253C12.1795 7.51807 12.0513 7.71084 11.8718 7.85542C11.718 8 11.5128 8.12048 11.3077 8.21687C11.1026 8.28916 10.8718 8.33735 10.6411 8.33735C10.4103 8.33735 10.1795 8.28916 9.97438 8.21687C9.76926 8.14458 9.56413 8.0241 9.41028 7.85542C9.25644 7.71084 9.12823 7.51807 9.02567 7.3253C8.94874 7.13253 8.89746 6.91566 8.89746 6.6988C8.89746 6.48193 8.94874 6.26506 9.02567 6.07229C9.10259 5.87952 9.23079 5.68675 9.41028 5.54217C9.56413 5.39759 9.76926 5.27711 9.97438 5.18072C10.1795 5.08434 10.4103 5.06024 10.6411 5.06024Z" fill="#ED5C10"/>
<path fill-rule="evenodd" clip-rule="evenodd" d="M20.0513 18C20.0513 18.4096 19.9487 18.6988 19.7179 18.8916C19.4872 19.0602 19.2564 19.1566 18.9487 19.1566H8.89744C8.89744 19.9518 8.97436 20.6747 9.15385 21.3012C9.33333 21.9277 9.61538 22.4819 10 22.9398C10.4103 23.3976 10.9231 23.759 11.5385 24C12.1795 24.241 12.9487 24.3614 13.8718 24.3614C14.5897 24.3614 15.2564 24.3132 15.8205 24.1928C16.3846 24.0723 16.8718 23.9518 17.282 23.8072C17.6923 23.6626 18.0256 23.5422 18.3077 23.4217C18.5641 23.3012 18.7692 23.253 18.9231 23.253C19 23.253 19.0769 23.2771 19.1282 23.3012C19.1795 23.3494 19.2308 23.3976 19.282 23.4699C19.3077 23.5422 19.3333 23.6385 19.359 23.7831C19.3846 23.9277 19.3846 24.0723 19.3846 24.2651C19.3846 24.4096 19.3846 24.5301 19.359 24.6265C19.359 24.7229 19.3333 24.8193 19.3077 24.8916C19.282 24.9638 19.2564 25.0361 19.2308 25.1084C19.1795 25.1807 19.1282 25.2289 19.0769 25.3012C19.0256 25.3494 18.8205 25.4458 18.5385 25.5904C18.2308 25.7349 17.8462 25.8554 17.359 25.9759C16.8718 26.0964 16.3077 26.2169 15.6667 26.3132C15.0256 26.4096 14.359 26.4578 13.6154 26.4578C12.359 26.4578 11.2564 26.2892 10.3077 25.9518C9.35897 25.6145 8.5641 25.1325 7.92308 24.4819C7.28205 23.8313 6.79487 23.012 6.46154 22.0482C6.15385 21.1325 6 20 6 18.6988C6 17.4699 6.17949 16.3614 6.51282 15.3735C6.84615 14.3855 7.33333 13.5663 7.97436 12.8675C8.61538 12.1928 9.38461 11.6626 10.2821 11.3012C11.1795 10.9398 12.2051 10.747 13.3077 10.747C14.5128 10.747 15.5385 10.9398 16.359 11.2771C17.2051 11.6386 17.8974 12.1205 18.4359 12.747C18.9744 13.3494 19.3846 14.0723 19.641 14.8916C19.8974 15.7108 20.0256 16.6024 20.0256 17.5181V18H20.0513ZM17.2308 17.2289C17.2564 15.8554 16.9487 14.7711 16.2564 13.9759C15.5641 13.1807 14.5385 12.7952 13.2051 12.7952C12.5128 12.7952 11.8974 12.9157 11.3846 13.1566C10.8718 13.3976 10.4359 13.7349 10.0769 14.1205C9.71795 14.506 9.46154 14.9879 9.25641 15.5422C9.05128 16.0723 8.94872 16.6506 8.92308 17.2289H17.2308Z" fill="white"/>
<path fill-rule="evenodd" clip-rule="evenodd" d="M38.3333 18.4096C38.3333 19.6626 38.1795 20.7952 37.8974 21.7831C37.6154 22.7711 37.1795 23.6386 36.6154 24.3133C36.0513 25.012 35.359 25.5422 34.5385 25.9277C33.7179 26.3133 32.7692 26.4819 31.7179 26.4819C31.2564 26.4819 30.8462 26.4337 30.4615 26.3614C30.0769 26.2651 29.6923 26.1446 29.3333 25.9518C28.9744 25.7831 28.5897 25.5422 28.2308 25.2771C27.8718 25.012 27.4872 24.6747 27.0769 24.3133V31.494C27.0769 31.5904 27.0513 31.6626 27 31.7108C26.9487 31.7831 26.8718 31.8313 26.7692 31.8795C26.6667 31.9277 26.5385 31.9518 26.3333 31.9759C26.1538 32 25.9231 32 25.641 32C25.359 32 25.1538 32 24.9744 31.9759C24.7949 31.9518 24.641 31.9277 24.5385 31.8795C24.4359 31.8313 24.359 31.7831 24.3077 31.7108C24.2564 31.6386 24.2564 31.5663 24.2564 31.494V11.4699C24.2564 11.3735 24.282 11.3012 24.3077 11.2289C24.3333 11.1807 24.4103 11.1084 24.5128 11.0843C24.6154 11.0361 24.7436 11.012 24.8974 10.988C25.0513 10.9639 25.2564 10.9639 25.4615 10.9639C25.6923 10.9639 25.8974 10.9639 26.0513 10.988C26.2051 11.012 26.3333 11.0361 26.4359 11.0843C26.5385 11.1325 26.6154 11.1807 26.641 11.2289C26.6923 11.2771 26.6923 11.3735 26.6923 11.4699V13.3976C27.1538 12.9398 27.5897 12.5542 28.0256 12.241C28.4615 11.9036 28.8974 11.6386 29.3333 11.4217C29.7692 11.2048 30.2051 11.0361 30.6667 10.9157C31.1282 10.7952 31.6154 10.747 32.1282 10.747C33.2308 10.747 34.1795 10.9398 34.9487 11.3494C35.7179 11.759 36.359 12.3133 36.8462 13.012C37.3333 13.7108 37.6923 14.5301 37.9231 15.4699C38.2308 16.3855 38.3333 17.3735 38.3333 18.4096ZM35.4359 18.7229C35.4359 18 35.3846 17.2771 35.2564 16.6024C35.1282 15.9277 34.9231 15.3012 34.641 14.7711C34.359 14.241 33.9487 13.8072 33.4615 13.494C32.9744 13.1807 32.359 13.012 31.641 13.012C31.282 13.012 30.9231 13.0602 30.5641 13.1566C30.2051 13.253 29.8461 13.4217 29.4872 13.6386C29.1282 13.8554 28.7436 14.1446 28.3333 14.506C27.9744 14.8434 27.5385 15.3012 27.1026 15.8072V21.5181C27.8718 22.4096 28.6154 23.0843 29.3077 23.5422C30 24 30.7179 24.241 31.4872 24.241C32.2051 24.241 32.7949 24.0723 33.3077 23.759C33.8205 23.4458 34.2308 23.012 34.5385 22.4819C34.8462 21.9518 35.0769 21.3494 35.2308 20.6988C35.359 20.0482 35.4359 19.3735 35.4359 18.7229Z" fill="white"/>
<path fill-rule="evenodd" clip-rule="evenodd" d="M51.9744 21.9036C51.9744 22.6265 51.8205 23.3012 51.5385 23.8554C51.2564 24.4337 50.8462 24.9157 50.3077 25.3012C49.7692 25.6867 49.1539 26 48.4103 26.1928C47.6667 26.3855 46.8718 26.506 45.9744 26.506C45.4359 26.506 44.9231 26.4578 44.4103 26.3855C43.9231 26.3133 43.4872 26.2169 43.0769 26.0723C42.6923 25.9518 42.359 25.8313 42.0769 25.6867C41.7949 25.5422 41.6154 25.4458 41.4872 25.3253C41.359 25.2289 41.2821 25.0602 41.2051 24.8675C41.1539 24.6747 41.1282 24.4096 41.1282 24.0964C41.1282 23.9036 41.1282 23.7349 41.1539 23.5904C41.1795 23.4458 41.2051 23.3494 41.2308 23.253C41.2564 23.1566 41.3077 23.1084 41.3846 23.0602C41.4359 23.012 41.5128 23.012 41.5898 23.012C41.718 23.012 41.8974 23.0843 42.1282 23.2289C42.359 23.3735 42.6667 23.5181 43.0256 23.7108C43.3846 23.8795 43.7949 24.0482 44.2821 24.1928C44.7692 24.3374 45.3333 24.4096 45.9487 24.4096C46.4359 24.4096 46.8462 24.3614 47.2308 24.2651C47.6154 24.1687 47.9487 24.0241 48.2308 23.8313C48.5128 23.6386 48.7436 23.3976 48.8718 23.1325C49.0257 22.8434 49.1026 22.506 49.1026 22.1205C49.1026 21.7108 49 21.3735 48.7692 21.1084C48.5385 20.8434 48.2564 20.5783 47.8974 20.3855C47.5385 20.1687 47.1282 19.9759 46.6667 19.8313C46.2051 19.6626 45.7436 19.494 45.2564 19.3253C44.7692 19.1566 44.3077 18.9398 43.8462 18.7229C43.3846 18.506 42.9744 18.2169 42.6154 17.8795C42.2564 17.5422 41.9744 17.1566 41.7436 16.6988C41.5128 16.241 41.4103 15.6867 41.4103 15.0602C41.4103 14.506 41.5385 13.9518 41.7692 13.4458C42 12.9398 42.359 12.4819 42.8205 12.0964C43.2821 11.7108 43.8718 11.3976 44.5641 11.1566C45.2564 10.9157 46.0769 10.7952 47 10.7952C47.4103 10.7952 47.8205 10.8193 48.2308 10.8916C48.641 10.9639 49 11.0361 49.3333 11.1325C49.6667 11.2289 49.9487 11.3253 50.1795 11.4458C50.4103 11.5663 50.5898 11.6626 50.718 11.7349C50.8462 11.8313 50.9231 11.9036 50.9487 11.9518C51 12.0241 51.0257 12.0964 51.0257 12.1687C51.0513 12.241 51.0513 12.3373 51.0769 12.4578C51.1026 12.5783 51.1026 12.7229 51.1026 12.8916C51.1026 13.0843 51.1026 13.2289 51.0769 13.3735C51.0513 13.5181 51.0257 13.6145 51 13.7108C50.9487 13.8072 50.9231 13.8554 50.8462 13.9036C50.7949 13.9518 50.718 13.9518 50.6667 13.9518C50.5641 13.9518 50.4103 13.9036 50.2308 13.7831C50.0257 13.6626 49.7949 13.5422 49.4872 13.3976C49.1795 13.253 48.8205 13.1325 48.4103 13.012C48 12.8916 47.5128 12.8434 47 12.8434C46.5128 12.8434 46.1026 12.8916 45.7436 12.9879C45.3846 13.0843 45.0769 13.2289 44.8462 13.4217C44.6154 13.6145 44.4359 13.8313 44.3077 14.0723C44.1795 14.3373 44.1282 14.6024 44.1282 14.8916C44.1282 15.3012 44.2308 15.6626 44.4615 15.9277C44.6923 16.2169 44.9744 16.4578 45.3333 16.6747C45.6923 16.8916 46.1026 17.0843 46.5641 17.253C47.0257 17.4217 47.4872 17.5904 47.9744 17.7831C48.4615 17.9759 48.9231 18.1687 49.4103 18.3855C49.8718 18.6024 50.2821 18.8916 50.6667 19.2048C51.0256 19.5181 51.3077 19.9036 51.5385 20.3614C51.8462 20.747 51.9744 21.2771 51.9744 21.9036Z" fill="white"/>
<path fill-rule="evenodd" clip-rule="evenodd" d="M58.7692 25.8072C58.7692 25.9036 58.7436 25.9759 58.6923 26.0241C58.641 26.0723 58.5641 26.1446 58.4615 26.1687C58.359 26.2169 58.2308 26.241 58.0256 26.2651C57.8462 26.2892 57.6154 26.2892 57.3333 26.2892C57.0513 26.2892 56.8462 26.2892 56.6667 26.2651C56.4872 26.241 56.3333 26.2169 56.2308 26.1687C56.1282 26.1205 56.0513 26.0723 56 26.0241C55.9487 25.9759 55.9487 25.9036 55.9487 25.8072V11.4699C55.9487 11.3976 55.9744 11.3253 56 11.253C56.0513 11.1807 56.1026 11.1325 56.2308 11.0843C56.3333 11.0361 56.4872 11.012 56.6667 10.988C56.8462 10.9639 57.0769 10.9639 57.3333 10.9639C57.6154 10.9639 57.8462 10.9639 58.0256 10.988C58.2051 11.012 58.359 11.0361 58.4615 11.0843C58.5641 11.1325 58.641 11.1807 58.6923 11.253C58.7436 11.3253 58.7692 11.3976 58.7692 11.4699V25.8072Z" fill="white"/>
<path fill-rule="evenodd" clip-rule="evenodd" d="M66.7436 25.8072C66.7436 25.9036 66.7179 25.9759 66.6667 26.0241C66.6154 26.0723 66.5385 26.1446 66.4359 26.1687C66.3333 26.2169 66.2051 26.241 66 26.2651C65.8205 26.2892 65.5897 26.2892 65.3077 26.2892C65.0256 26.2892 64.8205 26.2892 64.641 26.2651C64.4615 26.241 64.3077 26.2169 64.2051 26.1687C64.1026 26.1205 64.0256 26.0723 63.9744 26.0241C63.9231 25.9759 63.9231 25.9036 63.9231 25.8072V4.50602C63.9231 4.40964 63.9487 4.33735 63.9744 4.28916C64.0256 4.21687 64.0769 4.16867 64.2051 4.12048C64.3077 4.07229 64.4615 4.04819 64.641 4.0241C64.8205 4 65.0513 4 65.3077 4C65.5897 4 65.8205 4 66 4.0241C66.1795 4.04819 66.3333 4.07229 66.4359 4.12048C66.5385 4.16867 66.6154 4.21687 66.6667 4.28916C66.7179 4.36145 66.7436 4.43373 66.7436 4.50602V25.8072Z" fill="white"/>
<path fill-rule="evenodd" clip-rule="evenodd" d="M86 18.4819C86 19.6627 85.8462 20.7229 85.5128 21.7108C85.1795 22.6988 84.6923 23.5422 84.0513 24.2651C83.4103 24.988 82.5897 25.5422 81.6154 25.9277C80.641 26.3374 79.5128 26.5301 78.2051 26.5301C76.9487 26.5301 75.8462 26.3615 74.9231 26C74 25.6386 73.2051 25.1325 72.5898 24.4819C71.9744 23.8072 71.5128 22.988 71.2051 22.0482C70.8974 21.0843 70.7436 20 70.7436 18.7952C70.7436 17.6145 70.8974 16.5542 71.2308 15.5663C71.5641 14.5783 72.0513 13.7349 72.6923 13.012C73.3333 12.2892 74.1539 11.759 75.1282 11.3494C76.1026 10.9639 77.2308 10.7711 78.5385 10.7711C79.7949 10.7711 80.8974 10.9398 81.8205 11.3012C82.7436 11.6627 83.5385 12.1687 84.1538 12.8193C84.7692 13.494 85.2308 14.3133 85.5641 15.253C85.8462 16.1928 86 17.2771 86 18.4819ZM83.1026 18.6506C83.1026 17.8795 83.0256 17.1325 82.8718 16.4578C82.7179 15.759 82.4615 15.1566 82.1026 14.6506C81.7436 14.1205 81.2821 13.7108 80.6667 13.4217C80.0513 13.1084 79.3077 12.9639 78.4103 12.9639C77.5898 12.9639 76.8718 13.1084 76.2564 13.3735C75.6667 13.6386 75.1539 14.0482 74.7692 14.5542C74.3846 15.0602 74.1026 15.6627 73.8974 16.3374C73.7179 17.0361 73.6154 17.7831 73.6154 18.6024C73.6154 19.3976 73.6923 20.1205 73.8462 20.8193C74 21.5181 74.2564 22.1205 74.6154 22.6265C74.9744 23.1325 75.4615 23.5422 76.0513 23.8554C76.6667 24.1687 77.4103 24.3133 78.3077 24.3133C79.1282 24.3133 79.8462 24.1687 80.4359 23.9036C81.0513 23.6386 81.5385 23.2289 81.9231 22.747C82.3077 22.241 82.5897 21.6627 82.7692 20.9639C83 20.241 83.1026 19.4699 83.1026 18.6506Z" fill="white"/>
</svg>
