<svg width="29" height="29" viewBox="0 0 29 29" fill="none" xmlns="http://www.w3.org/2000/svg">
<path d="M20.7483 15.8062C20.0801 14.8843 19.1714 14.2596 18.0199 13.9309C18.995 13.5032 19.7659 12.899 20.3314 12.116C20.8969 11.3354 21.1797 10.4364 21.1797 9.42021C21.1797 7.50862 20.5972 6.06587 19.4312 5.08833C18.3159 4.1555 16.6617 3.68183 14.5 3.64075V1.20837H12.3854V3.62504H7.25V25.375H12.3854V27.7917H14.5V25.375H14.639C16.9022 25.375 18.653 24.8168 19.8916 23.7015C21.1301 22.5862 21.75 21.0528 21.75 19.1002C21.75 17.8266 21.4165 16.7282 20.7483 15.8062ZM17.3311 6.85733C18.0138 7.40108 18.3558 8.201 18.3558 9.39846C18.3558 10.4763 17.9873 11.3294 17.2514 11.9577C16.5469 12.5595 15.6515 12.8084 14.5 12.8301V6.05621C15.7446 6.09367 16.698 6.35346 17.3311 6.85733ZM10.1198 6.04171H12.3854V12.8386H10.1198V6.04171ZM10.1198 22.9584V15.2552H12.3854V22.9584H10.1198ZM17.7915 21.9204C17.0363 22.6128 16.0044 22.9584 14.697 22.9584H14.5V15.2552H14.8009C17.5909 15.2552 18.9249 16.5119 18.9249 19.1316C18.9249 20.346 18.5467 21.228 17.7915 21.9204Z" fill="#333F50" fill-opacity="0.7"/>
</svg>
