<svg width="12" height="12" viewBox="0 0 12 12" fill="none" xmlns="http://www.w3.org/2000/svg">
<path d="M6 0C2.7 0 0 2.7 0 6C0 9.3 2.7 12 6 12C9.3 12 12 9.3 12 6C12 2.7 9.3 0 6 0ZM9.3 5.2L5.8 8.7C5.5 8.9 5.3 9 5 9C4.7 9 4.5 8.9 4.3 8.7L2.8 7.3C2.4 6.9 2.4 6.3 2.8 5.9C3.2 5.5 3.8 5.5 4.2 5.9L5 6.6L7.8 3.8C8.2 3.4 8.8 3.4 9.2 3.8C9.6 4.1 9.6 4.8 9.3 5.2Z" fill="#0BA373"/>
</svg>
