<svg width="10" height="10" viewBox="0 0 10 10" fill="none" xmlns="http://www.w3.org/2000/svg">
<path d="M9.71002 1.71L8.29002 0.290001C8.19658 0.19732 8.08576 0.123995 7.96392 0.0742302C7.84209 0.0244656 7.71162 -0.000759438 7.58002 1.4555e-06H2.42002C2.28841 -0.000759438 2.15795 0.0244656 2.03611 0.0742302C1.91427 0.123995 1.80346 0.19732 1.71002 0.290001L0.290017 1.71C0.197335 1.80344 0.12401 1.91426 0.0742455 2.03609C0.0244809 2.15793 -0.000744179 2.28839 1.67143e-05 2.42V9C1.67143e-05 9.26522 0.105374 9.51957 0.29291 9.70711C0.480446 9.89464 0.7348 10 1.00002 10H9.00002C9.26523 10 9.51959 9.89464 9.70712 9.70711C9.89466 9.51957 10 9.26522 10 9V2.42C10.0008 2.28839 9.97555 2.15793 9.92579 2.03609C9.87602 1.91426 9.8027 1.80344 9.71002 1.71ZM8.00002 5.33C8.00002 5.41799 7.98269 5.50511 7.94902 5.5864C7.91535 5.66769 7.86599 5.74155 7.80378 5.80376C7.74156 5.86598 7.6677 5.91533 7.58641 5.949C7.50513 5.98267 7.418 6 7.33002 6H2.67002C2.49232 6 2.3219 5.92941 2.19626 5.80376C2.07061 5.67811 2.00002 5.5077 2.00002 5.33V4.67C2.00002 4.49231 2.07061 4.32189 2.19626 4.19624C2.3219 4.07059 2.49232 4 2.67002 4H7.33002C7.418 4 7.50513 4.01733 7.58641 4.051C7.6677 4.08467 7.74156 4.13402 7.80378 4.19624C7.86599 4.25846 7.91535 4.33231 7.94902 4.4136C7.98269 4.49489 8.00002 4.58202 8.00002 4.67V5.33ZM1.00002 2L2.00002 1H8.00002L9.00002 2H1.00002Z" fill="#9FA7AE"/>
</svg>
