<svg width="18" height="18" viewBox="0 0 18 18" fill="none" xmlns="http://www.w3.org/2000/svg">
<path d="M0.884972 5.01334H4.97588C5.08424 3.88116 5.4495 2.78765 6.04453 1.81404C6.33981 1.28798 6.76632 0.845192 7.28358 0.527704C7.80084 0.210216 8.39168 0.0285663 9 0C9.60832 0.0285663 10.1992 0.210216 10.7164 0.527704C11.2337 0.845192 11.6602 1.28798 11.9555 1.81404C12.565 2.78103 12.9314 3.87799 13.0241 5.01334H17.115C17.2261 5.00667 17.3373 5.02197 17.4423 5.05836C17.5472 5.09474 17.6437 5.15147 17.7262 5.22521C17.8086 5.29895 17.8753 5.38822 17.9223 5.48777C17.9693 5.58732 17.9958 5.69515 18 5.80492L17.1818 15.9965C17.1672 16.2798 17.0949 16.5573 16.9693 16.8124C16.8437 17.0675 16.6672 17.295 16.4506 17.4813C16.234 17.6675 15.9815 17.8087 15.7084 17.8965C15.4352 17.9842 15.147 18.0167 14.8609 17.992H3.17254C2.88726 18.0167 2.59986 17.9842 2.32767 17.8962C2.05548 17.8083 1.80414 17.6668 1.58881 17.4804C1.37349 17.2939 1.19863 17.0663 1.07479 16.8113C0.950956 16.5562 0.880705 16.2791 0.868275 15.9965L0 5.87088C0.00424375 5.76111 0.0306532 5.65329 0.0776776 5.55373C0.124702 5.45418 0.191393 5.36492 0.273834 5.29118C0.356275 5.21743 0.452804 5.16071 0.557752 5.12432C0.6627 5.08794 0.773951 5.07263 0.884972 5.07931V5.01334ZM5.99443 5.01334H11.9889C11.8948 4.04428 11.5809 3.10861 11.0705 2.27579C10.8666 1.89805 10.5704 1.57654 10.2088 1.3404C9.84729 1.10427 9.43179 0.960975 9 0.92351C8.56658 0.962658 8.14999 1.10844 7.7883 1.34755C7.42662 1.58665 7.13136 1.91146 6.9295 2.29228C6.41559 3.11877 6.09604 4.04864 5.99443 5.01334Z" fill="#88939E"/>
<path d="M6.39522 14.4464C6.33364 14.3873 6.29496 14.3088 6.28588 14.2245C6.27679 14.1402 6.29789 14.0554 6.34551 13.9849C6.39312 13.9143 6.46425 13.8625 6.54653 13.8383C6.62882 13.8142 6.71707 13.8192 6.79596 13.8527L7.12991 14.0671C7.80173 14.5092 8.57869 14.7707 9.38408 14.8257C9.64893 14.8308 9.91122 14.7737 10.1493 14.659C10.3874 14.5443 10.5944 14.3753 10.7533 14.166C10.8368 14.0313 10.904 13.8874 10.9537 13.7372C11.0543 13.46 11.0543 13.1569 10.9537 12.8797C10.7874 12.539 10.5193 12.257 10.1856 12.0716C9.87963 11.9025 9.55456 11.7697 9.21711 11.6758C8.40781 11.5158 7.67101 11.1058 7.11321 10.5049C6.89853 10.1969 6.78359 9.83172 6.78359 9.45775C6.78359 9.08378 6.89853 8.71861 7.11321 8.41056C7.28976 8.1272 7.5347 7.89151 7.8261 7.72458C8.11751 7.55765 8.44627 7.46471 8.78297 7.45406C9.59652 7.41411 10.4054 7.59672 11.1206 7.98178C11.1645 8.00112 11.2039 8.02914 11.2363 8.06412C11.2687 8.0991 11.2935 8.14028 11.3092 8.18512C11.3248 8.22996 11.331 8.2775 11.3273 8.32479C11.3236 8.37208 11.3101 8.41811 11.2876 8.46003C11.2663 8.5039 11.2363 8.54309 11.1993 8.57527C11.1624 8.60745 11.1193 8.63197 11.0725 8.64735C11.0258 8.66274 10.9764 8.66868 10.9273 8.66483C10.8782 8.66098 10.8304 8.64742 10.7867 8.62494C10.1946 8.30242 9.52563 8.14294 8.84976 8.16319C8.62496 8.15836 8.40264 8.21037 8.20392 8.31428C8.0052 8.41819 7.83666 8.57054 7.71433 8.75687C7.57696 8.94699 7.50312 9.17472 7.50312 9.40828C7.50312 9.64184 7.57696 9.86957 7.71433 10.0597C8.16624 10.5205 8.74801 10.8365 9.38408 10.9667C9.78585 11.0808 10.1726 11.2413 10.5362 11.4449C10.9991 11.7058 11.3672 12.1039 11.5882 12.5828C11.7475 13.0199 11.7475 13.4981 11.5882 13.9351C11.5275 14.1443 11.4376 14.3441 11.321 14.5288V14.6278C11.107 14.9416 10.8149 15.1958 10.4728 15.3662C10.1308 15.5365 9.75012 15.6173 9.36739 15.6007C8.42515 15.5584 7.51268 15.2618 6.72917 14.7432L6.39522 14.4464Z" fill="white"/>
</svg>
