<svg width="30" height="16" viewBox="0 0 30 16" fill="none" xmlns="http://www.w3.org/2000/svg">
<path d="M0 8C0 3.58172 3.58172 0 8 0H22C26.4183 0 30 3.58172 30 8C30 12.4183 26.4183 16 22 16H8C3.58172 16 0 12.4183 0 8Z" fill="#0BA373"/>
<rect x="16" y="2" width="12" height="12" rx="6" fill="white"/>
</svg>
