<svg width="12" height="12" viewBox="0 0 12 12" fill="none" xmlns="http://www.w3.org/2000/svg">
<path d="M0 6C0 7.18669 0.351894 8.34673 1.01118 9.33342C1.67047 10.3201 2.60754 11.0892 3.7039 11.5433C4.80026 11.9974 6.00666 12.1162 7.17054 11.8847C8.33443 11.6532 9.40353 11.0818 10.2426 10.2426C11.0818 9.40353 11.6532 8.33443 11.8847 7.17054C12.1162 6.00666 11.9974 4.80026 11.5433 3.7039C11.0892 2.60754 10.3201 1.67047 9.33342 1.01118C8.34673 0.351894 7.18669 0 6 0C4.4087 0 2.88258 0.632141 1.75736 1.75736C0.632141 2.88258 0 4.4087 0 6ZM3.32 7.1H3.41C3.59784 7.03072 3.80214 7.01942 3.99648 7.06756C4.19081 7.11569 4.36622 7.22105 4.5 7.37C4.69193 7.57425 4.92464 7.73588 5.18305 7.84442C5.44145 7.95295 5.71979 8.00595 6 8C6.52814 8.00042 7.03502 7.79192 7.41 7.42L6.85 6.85C6.77636 6.78213 6.72528 6.69333 6.70364 6.59555C6.682 6.49777 6.69084 6.39571 6.72897 6.3031C6.7671 6.2105 6.83269 6.1318 6.9169 6.07761C7.00112 6.02342 7.09992 5.99633 7.2 6H9.5C9.63261 6 9.75979 6.05268 9.85355 6.14645C9.94732 6.24021 10 6.36739 10 6.5V8.8C10.0006 8.89993 9.97125 8.99775 9.91572 9.08084C9.8602 9.16393 9.78105 9.22847 9.68849 9.26614C9.59592 9.30381 9.4942 9.31288 9.39643 9.29218C9.29867 9.27148 9.20935 9.22195 9.14 9.15L8.83 8.83C8.44047 9.21372 7.97641 9.51351 7.46647 9.71084C6.95654 9.90818 6.41156 9.99887 5.8652 9.97731C5.31884 9.95576 4.7827 9.82242 4.28989 9.58552C3.79709 9.34863 3.35809 9.01322 3 8.6C2.9099 8.48481 2.84616 8.35126 2.81328 8.20876C2.78039 8.06626 2.77917 7.91829 2.80968 7.77526C2.84019 7.63224 2.9017 7.49765 2.98987 7.38098C3.07805 7.26431 3.19074 7.16839 3.32 7.1ZM2 3.2C1.9994 3.10007 2.02875 3.00225 2.08428 2.91916C2.1398 2.83607 2.21895 2.77153 2.31151 2.73386C2.40407 2.69619 2.5058 2.68712 2.60357 2.70782C2.70133 2.72852 2.79065 2.77805 2.86 2.85L3.17 3.17C3.56022 2.77821 4.02744 2.47159 4.54215 2.26949C5.05686 2.06739 5.60788 1.9742 6.16043 1.99582C6.71297 2.01743 7.25503 2.15337 7.75238 2.39506C8.24973 2.63675 8.69157 2.97893 9.05 3.4C9.13833 3.51841 9.19932 3.65492 9.2286 3.79971C9.25788 3.9445 9.25472 4.09398 9.21934 4.2374C9.18396 4.38083 9.11725 4.51463 9.02399 4.6292C8.93074 4.74377 8.81326 4.83625 8.68 4.9H8.59C8.40599 4.9741 8.2041 4.99179 8.01001 4.95084C7.81591 4.90988 7.63838 4.81212 7.5 4.67C7.31167 4.45848 7.08056 4.28938 6.82197 4.17388C6.56338 4.05837 6.28321 3.99911 6 4C5.47186 3.99958 4.96498 4.20808 4.59 4.58L5.15 5.15C5.22364 5.21787 5.27472 5.30667 5.29636 5.40445C5.318 5.50223 5.30916 5.60429 5.27103 5.6969C5.2329 5.7895 5.16731 5.8682 5.0831 5.92239C4.99888 5.97658 4.90008 6.00367 4.8 6H2.5C2.36739 6 2.24021 5.94732 2.14645 5.85355C2.05268 5.75979 2 5.63261 2 5.5V3.2Z" fill="#006EC6"/>
</svg>
